<svg width="20" height="18" viewBox="0 0 20 18" fill="none" xmlns="http://www.w3.org/2000/svg">
<path d="M20 3.32534L6.77852 17.3931L0 10.1773L3.12386 6.85201L6.77852 10.7489L16.8761 0L20 3.32534Z" fill="#D1D1D1"/>
</svg>
