<svg width="20" height="21" viewBox="0 0 20 21" fill="none" xmlns="http://www.w3.org/2000/svg">
<path d="M13.8194 10.2363L20 16.5598L16.1806 20.4675L10 14.144L3.8194 20.4675L0 16.5598L6.1806 10.2363L0 3.91274L3.8194 0.00500488L10 6.32854L16.1806 0.00500488L20 3.91274L13.8194 10.2363Z" fill="#D1D1D1"/>
</svg>
